{
    "text": "hi benchsnitch",
    "textFormat": "plain",
    "type": "message",
    "timestamp": "2018-03-20T15:41:29.634Z",
    "localTimestamp": "2018-03-20T15:41:29.634+00:00",
    "entities": [{
        "locale": "en-GB",
        "country": "GB",
        "platform": "Mac",
        "type": "clientInfo"
    }],
    "sourceEvent": {
        "tenant": {
            "id": "76a2ae5a-9f00-4f6b-95ed-5d33d77c4d61"
        }
    },
    "attachments": [],
    "address": {
        "id": "1521560489632",
        "channelId": "msteams",
        "user": {
            "id": "29:1Ga3R4GIZ-UFnFylibVZzDnywW008AW2kyGD9gRUVSWFE7KxqnFVdckQRueJKXcTSnMAyPrDxU0GMgVlWwyfItQ",
            "name": "Campbell, Sean",
            "aadObjectId": "662ef3d7-c3c8-46b8-a31e-cfb0d8318c02"
        },
        "conversation": {
            "id": "a:1ZDLJh0MZn-SzEcpSModvtW-slf6KSVH6XnCMZEmDAlmIyVIV45IQpKU0LiFd16EtkCy-j2f0g-bEGqm2LVDJVsvBlPmNnQ1HCgMxDfMMvE0ymMCKUYEpw9IcjlM9cKXe"
        },
        "bot": {
            "id": "28:185fa643-99c8-4e5a-9099-bcaacff4b618",
            "name": "benchsnitch"
        },
        "serviceUrl": "https://smba.trafficmanager.net/emea-client-ss.msg/"
    },
    "source": "msteams",
    "agent": "botbuilder",
    "user": {
        "id": "29:1Ga3R4GIZ-UFnFylibVZzDnywW008AW2kyGD9gRUVSWFE7KxqnFVdckQRueJKXcTSnMAyPrDxU0GMgVlWwyfItQ",
        "name": "Campbell, Sean",
        "aadObjectId": "662ef3d7-c3c8-46b8-a31e-cfb0d8318c02"
    }
}